\babel@toc {portuguese}{}
\beamer@sectionintoc {1}{Proposta}{2}{0}{1}
\beamer@sectionintoc {2}{Ambientes}{9}{0}{2}
\beamer@sectionintoc {3}{Resultados}{12}{0}{3}
\beamer@sectionintoc {4}{Conclusões}{34}{0}{4}
\beamer@sectionintoc {5}{Bibliografia}{43}{0}{5}
