2035370919 121914376 1754413161 1840318077 1094891086 151564147 380774860 749566282 200189902 476158539 2006596744 
703562834 206495436 616062141 154577561 2067177335 520061864 1258021954 1034325239 2142494140 220802878 
1649616321 508218166 1700694159 1837047618 644735400 1782323010 1420418066 771758616 1600842764 585196715 
659645886 1722757139 192126227 352480315 670164576 343690374 733255174 1419730857 543880275 1209413712 
1278843952 1247443108 1415909147 1894906092 1402020668 1335602834 267484307 512558973 222444424 262494799 
733361851 1872060744 770712964 286572361 1561624713 1415448363 2068895370 834559131 39723331 1522254485 
1419755845 699369216 1097527975 1611882071 1051849530 1767692550 1955572444 1785104703 1039939758 351969070 
847034767 171300062 1599412177 115460265 2066206153 853949197 1451063098 186206812 1366508169 1673507521 
448701610 2099870019 1398084617 1219414573 238958731 812225681 487379288 160370453 1646784811 527102618 
1682624937 919057007 1226471833 632669264 383455430 130837715 252878165 191544225 1915942417 1292817923 
543513295 615493535 1464117984 2142925471 730953800 1382840488 849391019 34533249 1569047299 68415540 
1708040770 2017748908 20801910 958641738 1089679833 259760641 1770867418 1577059120 420131093 1270168581 
2104161737 2102756029 41741939 1183149921 587941644 425197368 1313987635 840819809 616741593 1082446404 
2133637731 1160254887 1697939938 1450272066 1155696709 281410089 685628905 2005087728 315943338 107192556 
2073503267 2023984107 2124941463 2094305176 835142196 1067137647 206582168 458525965 496713118 626713260 
1728694545 453391206 581985641 1770436484 1636541127 1169927284 48150203 803045113 2010747092 664891795 
1885491516 1996901174 1825146681 1435947806 1299689591 833359742 1717357894 1985318496 690963821 2033301231 
2092511051 616983439 1909801689 2069968865 563804966 597460236 989622864 770387134 1055986201 1486335981 
1397100393 637197097 1939727187 1979086033 260149932 1428784665 1001529669 308300135 84346129 864793112 
973191929 1969837645 714210638 650854962 1258301802 2013900228 1484214703 828176047 1851735075 27694875 
713993630 1796762477 644678313 476311670 1719247694 1208483278 1073771906 561386909 1978870411 2129758106 
2047722889 1228487156 619471554 1839966427 1060089540 879621486 1121267443 2061619208 1187921620 1205613572 
778928672 13629900 1027967568 1493139309 664484861 138785721 1359555888 1215915 966961767 1063807315 
28910789 1680955396 713086143 673589101 9783418 284850188 1882072379 1083555323 846237096 1713459141 
1065829780 746476337 794462648 1685301333 438959115 1854552188 417439170 1560226558 1768687747 1605360789 
618356481 400132770 1618990689 1646324048 1893272078 135991901 1785109768 1105344318 137207816 604587886 
21667984 166118604 138059634 734754126 839707705 147843051 1019604314 574296435 1231398373 1865841409 
140271927 149744504 464834097 934734575 1835045836 903793212 641803114 105001358 316536121 263007212 
1710362146 934892601 663139982 1181869186 433733000 408928411 1317861087 71359119 1514272728 1455068902 
675947004 1535940711 1621187505 814006637 123211189 313411561 961849687 1142815502 887707995 45764411 
861173262 1027979922 195508914 1326007359 1962714496 2030554750 82316922 457033961 2135556107 398853042 
720041172 1698434604 1333745642 1383181153 732820142 1767478641 1792109564 2050681228 1838837759 1158898643 
1358266481 367301114 547355706 831970337 1181307751 670566894 1145381898 2143157437 1813382395 2033089892 
41438200 527072008 913586165 236947113 1853079366 728817012 120018214 1935396287 1185850972 108090672 
186765680 1905892144 1806525276 1520511321 1141589648 391861769 1140506313 786215563 295059348 831860423 
1945114206 1653325828 1199161537 344986263 337812516 232985639 1015553156 1483194413 228659427 681451902 
1368800657 270097626 1208523909 134903173 507044739 914119627 863720185 627062952 702032265 2049571156 
735153624 888797945 1807979651 394195251 261825617 802085651 786057019 1402331930 1588301213 1081116366 
86708704 1385931770 586958545 1285870240 1730918032 924771060 1518855878 598987539 260481825 1747515305 
1280439440 1629282481 2017612930 341479701 1764185653 377174020 1255599327 480422189 1004236972 1957631591 
382509697 1739390595 698945887 43005699 2133585845 960771504 845091349 772159215 215619785 285908914 
1853275580 302328488 1671840683 292750476 1588198728 1255275067 1217521535 959570957 1854262605 1478003359 
559602613 987218397 959802191 429731895 1328698097 576504196 806905914 436813775 1056926384 1811142885 
246961717 1439436080 1403049831 945907604 1482441779 1389152027 1906679107 180049479 13827593 2122298891 
465958392 1867103172 277143730 2137799075 12369999 1865342457 1245590493 1229891534 677429766 952369449 
560411244 1237032378 1939587845 1520213435 1666764272 1120802293 2096717630 326186538 1557616067 1006160365 
2137329422 1804577784 298112797 1392895605 603001739 1780554575 634563983 362197197 1960604053 648391576 
337012439 279078797 368011099 614156168 269394223 380381098 332014977 1514984715 1610272631 1009444742 
319870515 23200226 98993471 111974712 1543413660 1765757743 1232777004 1492647641 2091944280 642909423 
351324358 2081790053 300003558 649437154 1327202009 903005296 282508080 1961765992 1265202492 95628484 
462673919 1602214930 374707280 830685017 68887449 644101502 1211066114 400902425 11602568 673855096 
1410347166 331473083 697055322 1509340637 443447794 92985333 1127614731 1676224797 1585632974 1072075362 
171650571 1936957331 1006381766 471654128 438910836 186100127 1374659423 721418915 382470 492378266 
817047398 463056388 2094593195 1191754678 1293741404 15996996 1835856179 357323870 416899420 1847458747 
1031178965 1827246586 31448181 1728234286 1189103574 474895974 1821219619 169234656 3637122 1259368944 
1241310017 175287693 1048842626 100208134 646941820 1487753461 286308260 2021601243 61688727 286690729 
366495860 878736124 749747116 313605407 2070490801 2043488520 329602402 1758863332 253328741 746501821 
1458838430 1284507705 426264758 1490286610 865258343 1615368331 1965182583 538994313 1784602986 1968819704 
1798363256 878429354 2144107396 699722233 978637488 643565568 39992045 1264945747 517683162 101680771 
1551636476 884179021 980416894 153899943 1197784427 903424047 49904814 1527386828 514803730 303233554 
126405001 1973642159 1587741259 552669758 1316445120 305515953 20554441 1134144054 844510265 1805157426 
955480109 495389872 536103132 952103857 1195112104 1514740619 1595669424 1235104148 632202717 2113352585 
1336784918 36355544 850047957 169718163 190255487 2047832384 1073142209 240160300 1427735563 1587945938 
543393854 1554140563 1414104448 2131135112 2106810321 583065919 289167416 2127364761 1717209972 1133677680 
1785038538 525206433 1629067551 173658021 1477310289 676696006 1688398639 925496064 1911800153 173117708 
891365000 1101101422 209473251 1741412956 1270819584 399728737 1641761691 196478145 639889037 922013606 
1784424082 1183282890 328670520 1051044882 1166934353 287997192 1634110800 1456101768 267878304 1203837124 
442295799 2052916842 1729043556 2071363349 79091214 1058870196 600575706 1767489853 1984366259 364892210 
1940607560 728247610 1465993631 2597162 322176917 589329566 402325899 1963938608 785807710 1042214935 
738468565 422748144 78014176 1067139084 1473793025 1244948528 1355136276 960420176 553566647 1623014579 
16773651 995862445 1528447772 1745817206 919742145 1607538986 657203753 1520317850 1227545190 494086363 
1885210059 1020669101 1222333972 1203720041 1023266262 1544510889 1793049606 1425592160 1360965848 431373668 
320323446 2099434412 854121811 398337621 1019089847 180431187 1643286148 226742474 1140851362 49369146 
1849757053 1157625013 1045231590 1230721176 755958570 1964973734 690776513 1413162323 1337807935 1918321702 
1907248685 1075534345 791507154 982099009 131770737 1814773416 379126249 1924820343 1092881927 1740092096 
208710362 1413205373 1692042859 1062832172 1811542993 563649057 1243263358 1307345493 790391531 236631071 
1356714638 492664935 1394256083 254462580 1723386110 2731005 71952665 266678975 1415893327 1409760600 
37517028 1175658363 337811296 829024182 10273723 469582033 496313949 389399971 246918727 1589195875 
2129492066 455629088 854917599 1674051276 1518461259 518976944 90216685 614240968 1826322436 880608215 
850872038 1035553425 1373273149 97644473 1290016004 949175610 100375477 1361968669 1215854584 1516268803 
624245620 1253371612 544443517 962056915 2082395793 554717240 1431638947 431226093 944117210 1678557673 
2020421967 926125628 2134186760 727855918 452693255 1505164370 1246832861 542909939 2119405337 925671648 
1423518153 822793727 1961225072 649307653 920438199 1103757428 1598483263 1020813675 318242448 666854198 
389598829 942488067 1920225809 934042345 1904544981 1855137953 1488759584 1188700280 138880397 285393146 
719774304 11818716 1211518773 706477416 739674633 1664212027 64158137 1986507493 59638318 36079826 
764695492 1483156470 858873552 578436915 2132464123 1779311750 1682194342 1583463737 652641776 2000436789 
102834286 1042240604 795441207 2023060095 1976282948 552502540 1730714399 1317558884 1741202819 1869594796 
1602952029 313493474 1881413511 666987153 1019970889 473604495 183715531 1084129026 312628339 243353848 
1120208851 1077323830 1726510318 1979082402 1655760744 1711490792 1610910503 1190471438 1147470880 116068630 
1043424578 1250305165 1158309233 1838865785 1125881611 987108532 243884676 709112362 157183767 1985087494 
431223509 1760135795 151097319 165153371 279639299 1171068208 638757865 463354830 107713585 951386203 
706708677 1227922435 2028710032 285735346 1059521188 1536987127 1997226137 522948042 579974916 997213368 
639016671 1623399494 100034885 1797325903 1314781630 1225916495 636950786 1558666305 1935028856 794134553 
1396270150 218768716 406786699 1547367468 383922086 686425998 570952027 1022679950 1149780827 678665611 
1974066152 1856489503 1906588045 1855292535 2142224849 818625584 1244796014 1991967337 1341573625 1824770929 
841697057 1980590295 1300686774 941731941 1630432549 467984755 20164787 119899687 2026651059 1955193643 
914034239 1275437560 26478710 1320820937 675321380 410400796 2007246934 1246273406 1433080745 1009544112 
1924939017 1259663249 718549967 1684043413 967472135 713291167 355185349 64784500 557774855 1696758973 
1889555429 1399471911 1529865620 1042758554 193720203 1012814520 1510743309 213884990 1132714206 1389910719 
21594984 2046748444 517864631 48073693 1220085733 1193186010 458474488 1079849018 291975767 